Benchmarking • zddr
…
  c = list(c(41,42,43,44,45,46,47,48,49,50,51,52,53,54,55,56,57,58,59,60)),
  d = list(c(61,62,63,64,65,66,67,68,69,70,71,72,73,74,75,76,77,78,79,80)),
  e = list(c(81,82,83,84,85,86,87,88,89,90,91,92,93,94,95,96,97,98,99,100))
) %>%
  tidyr::unnest(a) %>%
  #tidyr::unnest(b) %>%
  tidyr::unnest(c) %>%
  tidyr::unnest(d) %>%
  tidyr::unnest(e) %>%
  dplyr::rowwise() %>%
  dplyr::transmute(X = list(c(a,c,d,e)))
Sys.time() - start_time
#> Time difference of 4.143214 secs
tb
#> # A tibble: 160,000 x 1
#> # Rowwise: 
#>    X        
#>    <list>   
#>  1 <dbl [4]>
#>  2 <dbl [4]>
#>  3 <dbl [4]>
#>  4 <dbl [4]>
#>  5 <dbl [4]>
#>  6 <dbl [4]>
#>  7 <dbl [4]>
#>  8 <dbl [4]>
#>  9 <dbl [4]>
#> 10 <dbl [4]>
#> # … with 159,990 more rows
pryr::object_size(tb) 
#> Registered S3 method overwritten by 'pryr':
#>   method      from
#>   print.bytes Rcpp
#> 24.3 MB

The tibble is an inefficient way to deal with sets, especially if there is a need to remove nonminimal sets. For example, say the above family add a single set of 1, making all existing sets containing 1 nonminimal.

start_time <- Sys.time()
tb %>% dplyr::filter(!1 %in% X) 
#> # A tibble: 152,000 x 1
#> # Rowwise: 
#>    X        
#>    <list>   
#>  1 <dbl [4]>
#>  2 <dbl [4]>
#>  3 <dbl [4]>
#>  4 <dbl [4]>
#>  5 <dbl [4]>
#>  6 <dbl [4]>
#>  7 <dbl [4]>
#>  8 <dbl [4]>
#>  9 <dbl [4]>
#> 10 <dbl [4]>
#> # … with 151,990 more rows
…
